.......
----------------------------------------------------------------------
Ran 7 tests in 0.001s

OK
Name               Stmts   Miss Branch BrPart  Cover   Missing
--------------------------------------------------------------
Diplomacy.py          61      0     28      0   100%
TestDiplomacy.py      56      0      0      0   100%
--------------------------------------------------------------
TOTAL                117      0     28      0   100%
