...
----------------------------------------------------------------------
Ran 3 tests in 0.001s

OK
Name               Stmts   Miss Branch BrPart  Cover   Missing
--------------------------------------------------------------
Diplomacy.py          86      1     48      1    99%   41->45, 45
TestDiplomacy.py      21      0      0      0   100%
--------------------------------------------------------------
TOTAL                107      1     48      1    99%
